<?xml version="1.0" encoding="utf-8"?>
<!-- Generator: Adobe Illustrator 16.0.0, SVG Export Plug-In . SVG Version: 6.00 Build 0)  -->
<!DOCTYPE svg PUBLIC "-//W3C//DTD SVG 1.1//EN" "http://www.w3.org/Graphics/SVG/1.1/DTD/svg11.dtd">
<svg version="1.1" xmlns="http://www.w3.org/2000/svg" xmlns:xlink="http://www.w3.org/1999/xlink" x="0px" y="0px"
	 width="157.042px" height="157.043px" viewBox="0 0 157.042 157.043" enable-background="new 0 0 157.042 157.043"
	 xml:space="preserve">
<g id="Grid" opacity="0.7">
	
		<rect x="78.574" y="117.808" opacity="0.35" fill="#5C4A56" stroke="#231F20" stroke-width="0.8554" stroke-miterlimit="10" width="39.234" height="39.235"/>
	
		<rect x="117.808" y="39.234" opacity="0.35" fill="#5C4A56" stroke="#231F20" stroke-width="0.8554" stroke-miterlimit="10" width="39.234" height="39.34"/>
	
		<rect x="39.234" y="117.808" opacity="0.35" fill="#C6CDC7" stroke="#231F20" stroke-width="0.8554" stroke-miterlimit="10" width="39.34" height="39.235"/>
	
		<rect x="78.574" y="39.234" fill="#71535C" stroke="#231F20" stroke-width="0.25" stroke-miterlimit="10" width="39.234" height="39.34"/>
	
		<rect x="117.808" y="117.808" opacity="0.35" fill="#507282" stroke="#231F20" stroke-width="0.8554" stroke-miterlimit="10" width="39.234" height="39.235"/>
	
		<rect x="117.808" y="78.574" opacity="0.35" fill="#71535C" stroke="#231F20" stroke-width="0.8554" stroke-miterlimit="10" width="39.234" height="39.234"/>
	
		<rect y="39.234" opacity="0.35" fill="#7895A4" stroke="#231F20" stroke-width="0.8554" stroke-miterlimit="10" width="39.234" height="39.34"/>
	
		<rect y="117.808" opacity="0.35" fill="#71535C" stroke="#231F20" stroke-width="0.8554" stroke-miterlimit="10" width="39.234" height="39.235"/>
	
		<rect y="78.574" opacity="0.35" fill="#C6CDC7" stroke="#231F20" stroke-width="0.8554" stroke-miterlimit="10" width="39.234" height="39.234"/>
	
		<rect opacity="0.35" fill="#335C64" stroke="#231F20" stroke-width="0.8554" stroke-miterlimit="10" width="39.234" height="39.234"/>
	
		<rect x="39.234" opacity="0.35" fill="#9F2214" stroke="#231F20" stroke-width="0.8554" stroke-miterlimit="10" width="39.34" height="39.234"/>
	
		<rect x="78.574" opacity="0.35" fill="#7E6B71" stroke="#231F20" stroke-width="0.8554" stroke-miterlimit="10" width="39.234" height="39.234"/>
	
		<rect x="117.808" opacity="0.35" fill="#0A3542" stroke="#231F20" stroke-width="0.8554" stroke-miterlimit="10" width="39.234" height="39.234"/>
</g>
<g id="Layer_5">
	
		<rect x="39.234" y="39.234" fill="#FAAF40" stroke="#231F20" stroke-width="0.25" stroke-miterlimit="10" width="39.34" height="39.34"/>
	
		<rect x="78.574" y="78.574" fill="#7895A4" stroke="#231F20" stroke-width="0.25" stroke-miterlimit="10" width="39.234" height="39.234"/>
	
		<rect x="39.234" y="78.574" fill="#5C4A56" stroke="#231F20" stroke-width="0.25" stroke-miterlimit="10" width="39.34" height="39.234"/>
	<g>
		<g>
			
				<line fill="none" stroke="#231F20" stroke-width="0.855" stroke-miterlimit="10" x1="58.904" y1="58.904" x2="92.154" y2="58.904"/>
			<g>
				<polygon fill="#231F20" points="98.191,58.904 89.685,62.38 91.703,58.904 89.685,55.429 				"/>
			</g>
		</g>
	</g>
	<text transform="matrix(1 0 0 1 82.1533 52.6538)" font-family="'MyriadPro-Regular'" font-size="10">side = 1</text>
	<g>
		<g>
			
				<line fill="none" stroke="#231F20" stroke-width="0.855" stroke-miterlimit="10" x1="58.904" y1="58.904" x2="92.763" y2="92.764"/>
			<g>
				<polygon fill="#231F20" points="97.032,97.033 88.559,93.476 92.444,92.445 93.474,88.561 				"/>
			</g>
		</g>
	</g>
	<text transform="matrix(1 0 0 1 82.1533 110.4565)" font-family="'MyriadPro-Regular'" font-size="10">side = 2</text>
	<g>
		<g>
			
				<line fill="none" stroke="#231F20" stroke-width="0.855" stroke-miterlimit="10" x1="58.904" y1="58.878" x2="58.904" y2="92.128"/>
			<g>
				<polygon fill="#231F20" points="58.904,98.165 55.428,89.659 58.904,91.677 62.379,89.659 				"/>
			</g>
		</g>
	</g>
	<text transform="matrix(1 0 0 1 42.3599 110.4565)" font-family="'MyriadPro-Regular'" font-size="10">side = 3</text>
	<text transform="matrix(1 0 0 1 42.248 48.3691)"><tspan x="0" y="0" font-family="'MyriadPro-Regular'" font-size="8">Reference</tspan><tspan x="8.644" y="6.6" font-family="'MyriadPro-Regular'" font-size="8">pixel</tspan></text>
</g>
<g id="Grid_copy" display="none">
	
		<rect x="78.574" y="157.043" display="inline" fill="#C7B570" stroke="#231F20" stroke-width="0.8554" stroke-miterlimit="10" width="39.234" height="39.339"/>
	
		<rect x="78.574" y="117.808" display="inline" fill="#5C4A56" stroke="#231F20" stroke-width="0.8554" stroke-miterlimit="10" width="39.234" height="39.235"/>
	
		<rect x="39.234" y="157.043" display="inline" fill="#B25538" stroke="#231F20" stroke-width="0.8554" stroke-miterlimit="10" width="39.34" height="39.339"/>
	
		<rect x="117.808" y="39.234" display="inline" fill="#5C4A56" stroke="#231F20" stroke-width="0.8554" stroke-miterlimit="10" width="39.234" height="39.34"/>
	
		<rect x="157.042" y="39.234" display="inline" fill="#7E6B71" stroke="#231F20" stroke-width="0.8554" stroke-miterlimit="10" width="39.339" height="39.34"/>
	
		<rect x="39.234" y="39.234" display="inline" fill="#C7B570" stroke="#231F20" stroke-width="0.8554" stroke-miterlimit="10" width="39.34" height="39.34"/>
	
		<rect x="78.574" y="78.574" display="inline" fill="#7895A4" stroke="#231F20" stroke-width="0.8554" stroke-miterlimit="10" width="39.234" height="39.234"/>
	
		<rect x="39.234" y="117.808" display="inline" fill="#C6CDC7" stroke="#231F20" stroke-width="0.8554" stroke-miterlimit="10" width="39.34" height="39.235"/>
	
		<rect x="39.234" y="78.574" display="inline" fill="#5C4A56" stroke="#231F20" stroke-width="0.8554" stroke-miterlimit="10" width="39.34" height="39.234"/>
	
		<rect x="78.574" y="39.234" display="inline" fill="#71535C" stroke="#231F20" stroke-width="0.8554" stroke-miterlimit="10" width="39.234" height="39.34"/>
	
		<rect x="157.042" y="117.808" display="inline" fill="#C9AC68" stroke="#231F20" stroke-width="0.8554" stroke-miterlimit="10" width="39.339" height="39.235"/>
	
		<rect x="117.808" y="117.808" display="inline" fill="#507282" stroke="#231F20" stroke-width="0.8554" stroke-miterlimit="10" width="39.234" height="39.235"/>
	
		<rect x="117.808" y="157.043" display="inline" fill="#9F2214" stroke="#231F20" stroke-width="0.8554" stroke-miterlimit="10" width="39.234" height="39.339"/>
	
		<rect x="157.042" y="157.043" display="inline" fill="#507282" stroke="#231F20" stroke-width="0.8554" stroke-miterlimit="10" width="39.339" height="39.339"/>
	
		<rect x="117.808" y="78.574" display="inline" fill="#71535C" stroke="#231F20" stroke-width="0.8554" stroke-miterlimit="10" width="39.234" height="39.234"/>
	
		<rect x="157.042" y="78.574" display="inline" fill="#C6CDC7" stroke="#231F20" stroke-width="0.8554" stroke-miterlimit="10" width="39.339" height="39.234"/>
	
		<rect y="39.234" display="inline" fill="#7895A4" stroke="#231F20" stroke-width="0.8554" stroke-miterlimit="10" width="39.234" height="39.34"/>
	
		<rect y="117.808" display="inline" fill="#71535C" stroke="#231F20" stroke-width="0.8554" stroke-miterlimit="10" width="39.234" height="39.235"/>
	
		<rect y="157.043" display="inline" fill="#7E8959" stroke="#231F20" stroke-width="0.8554" stroke-miterlimit="10" width="39.234" height="39.339"/>
	
		<rect y="78.574" display="inline" fill="#C6CDC7" stroke="#231F20" stroke-width="0.8554" stroke-miterlimit="10" width="39.234" height="39.234"/>
	
		<rect display="inline" fill="#335C64" stroke="#231F20" stroke-width="0.8554" stroke-miterlimit="10" width="39.234" height="39.234"/>
	
		<rect x="157.042" display="inline" fill="#DAD7C5" stroke="#231F20" stroke-width="0.8554" stroke-miterlimit="10" width="39.339" height="39.234"/>
	
		<rect x="39.234" display="inline" fill="#9F2214" stroke="#231F20" stroke-width="0.8554" stroke-miterlimit="10" width="39.34" height="39.234"/>
	
		<rect x="78.574" display="inline" fill="#7E6B71" stroke="#231F20" stroke-width="0.8554" stroke-miterlimit="10" width="39.234" height="39.234"/>
	
		<rect x="117.808" display="inline" fill="#0A3542" stroke="#231F20" stroke-width="0.8554" stroke-miterlimit="10" width="39.234" height="39.234"/>
</g>
<g id="Home_range_1" display="none">
</g>
<g id="Home_range_2">
</g>
</svg>
